<?xml version="1.0" encoding="UTF-8" standalone="no"?>
<!-- Created with Inkscape (http://www.inkscape.org/) -->

<svg
   xmlns:dc="http://purl.org/dc/elements/1.1/"
   xmlns:cc="http://creativecommons.org/ns#"
   xmlns:rdf="http://www.w3.org/1999/02/22-rdf-syntax-ns#"
   xmlns:svg="http://www.w3.org/2000/svg"
   xmlns="http://www.w3.org/2000/svg"
   xmlns:sodipodi="http://sodipodi.sourceforge.net/DTD/sodipodi-0.dtd"
   xmlns:inkscape="http://www.inkscape.org/namespaces/inkscape"
   sodipodi:docname="fifo.svg"
   inkscape:version="0.48.3.1 r9886"
   version="1.1"
   id="svg2"
   height="373.67136"
   width="752.12903">
  <defs
     id="defs4">
    <marker
       inkscape:stockid="Arrow2Lend"
       orient="auto"
       refY="0"
       refX="0"
       id="Arrow2Lend"
       style="overflow:visible">
      <path
         id="path3886"
         style="fill-rule:evenodd;stroke-width:0.625;stroke-linejoin:round"
         d="M 8.7185878,4.0337352 -2.2072895,0.01601326 8.7185884,-4.0017078 c -1.7454984,2.3720609 -1.7354408,5.6174519 -6e-7,8.035443 z"
         transform="matrix(-1.1,0,0,-1.1,-1.1,0)"
         inkscape:connector-curvature="0" />
    </marker>
    <marker
       inkscape:stockid="Arrow1Lend"
       orient="auto"
       refY="0"
       refX="0"
       id="Arrow1Lend"
       style="overflow:visible">
      <path
         id="path3868"
         d="M 0,0 5,-5 -12.5,0 5,5 0,0 z"
         style="fill-rule:evenodd;stroke:#000000;stroke-width:1pt"
         transform="matrix(-0.8,0,0,-0.8,-10,0)"
         inkscape:connector-curvature="0" />
    </marker>
  </defs>
  <sodipodi:namedview
     id="base"
     pagecolor="#ffffff"
     bordercolor="#666666"
     borderopacity="1.0"
     inkscape:pageopacity="0.0"
     inkscape:pageshadow="2"
     inkscape:zoom="1.4"
     inkscape:cx="256.58578"
     inkscape:cy="105.17216"
     inkscape:document-units="px"
     inkscape:current-layer="layer1"
     showgrid="false"
     fit-margin-top="0"
     fit-margin-left="0"
     fit-margin-right="0"
     fit-margin-bottom="0"
     inkscape:window-width="1920"
     inkscape:window-height="1174"
     inkscape:window-x="0"
     inkscape:window-y="0"
     inkscape:window-maximized="1" />
  <metadata
     id="metadata7">
    <rdf:RDF>
      <cc:Work
         rdf:about="">
        <dc:format>image/svg+xml</dc:format>
        <dc:type
           rdf:resource="http://purl.org/dc/dcmitype/StillImage" />
        <dc:title />
      </cc:Work>
    </rdf:RDF>
  </metadata>
  <g
     inkscape:label="Layer 1"
     inkscape:groupmode="layer"
     id="layer1"
     transform="translate(9.1244359,-47.928361)">
    <g
       id="g3801">
      <rect
         ry="0"
         y="85.219322"
         x="65.457146"
         height="145.71428"
         width="174.28572"
         id="rect3759"
         style="fill:none;stroke:#204a87;stroke-width:1.39999998;stroke-miterlimit:4;stroke-opacity:1;stroke-dasharray:none" />
      <path
         inkscape:connector-curvature="0"
         id="path3761"
         d="m 65.100004,158.07646 174.999996,0"
         style="fill:none;stroke:#204a87;stroke-width:1px;stroke-linecap:butt;stroke-linejoin:miter;stroke-opacity:1" />
      <text
         sodipodi:linespacing="125%"
         id="text3767"
         y="73.524361"
         x="42.874561"
         style="font-size:24px;font-style:normal;font-variant:normal;font-weight:normal;font-stretch:normal;line-height:125%;letter-spacing:0px;word-spacing:0px;fill:#204a87;fill-opacity:1;stroke:none;font-family:Museo Sans;-inkscape-font-specification:Museo Sans"
         xml:space="preserve"><tspan
           style="font-size:36px;font-style:normal;font-weight:normal;-inkscape-font-specification:Museo Sans"
           y="73.524361"
           x="42.874561"
           id="tspan3769"
           sodipodi:role="line">fifo</tspan></text>
      <text
         sodipodi:linespacing="125%"
         id="text3793"
         y="134.13351"
         x="86.873116"
         style="font-size:24px;font-style:normal;font-variant:normal;font-weight:normal;font-stretch:normal;line-height:125%;letter-spacing:0px;word-spacing:0px;fill:#204a87;fill-opacity:1;stroke:none;font-family:Museo Sans;-inkscape-font-specification:Museo Sans"
         xml:space="preserve"><tspan
           y="134.13351"
           x="86.873116"
           id="tspan3795"
           sodipodi:role="line">head</tspan></text>
      <text
         sodipodi:linespacing="125%"
         id="text3797"
         y="204.84419"
         x="87.953117"
         style="font-size:24px;font-style:normal;font-variant:normal;font-weight:normal;font-stretch:normal;line-height:125%;letter-spacing:0px;word-spacing:0px;fill:#204a87;fill-opacity:1;stroke:none;font-family:Museo Sans;-inkscape-font-specification:Museo Sans"
         xml:space="preserve"><tspan
           y="204.84419"
           x="87.953117"
           id="tspan3799"
           sodipodi:role="line">tail</tspan></text>
    </g>
    <path
       style="fill:none;stroke:#000000;stroke-width:1px;stroke-linecap:butt;stroke-linejoin:miter;stroke-opacity:1;marker-end:url(#Arrow2Lend)"
       d="m 533.36054,368.48891 c 58.58885,1.01015 36.3655,-43.43656 62.62946,-43.43656 21.62111,0 24.24366,0 24.24366,0"
       id="path3859"
       inkscape:connector-curvature="0"
       sodipodi:nodetypes="csc" />
    <path
       sodipodi:nodetypes="csc"
       inkscape:connector-curvature="0"
       id="path4491"
       d="m 193.94928,368.48891 c 58.58885,1.01015 36.3655,-43.43656 62.62946,-43.43656 21.62111,0 24.24366,0 24.24366,0"
       style="fill:none;stroke:#000000;stroke-width:1px;stroke-linecap:butt;stroke-linejoin:miter;stroke-opacity:1;marker-end:url(#Arrow2Lend)" />
    <path
       style="fill:none;stroke:#000000;stroke-width:1px;stroke-linecap:butt;stroke-linejoin:miter;stroke-opacity:1;marker-end:url(#Arrow2Lend)"
       d="m 371.73613,368.48891 c 58.58885,1.01015 36.3655,-43.43656 62.62946,-43.43656 21.62111,0 24.24366,0 24.24366,0"
       id="path4493"
       inkscape:connector-curvature="0"
       sodipodi:nodetypes="csc" />
    <text
       xml:space="preserve"
       style="font-size:72px;font-style:normal;font-variant:normal;font-weight:normal;font-stretch:normal;line-height:125%;letter-spacing:0px;word-spacing:0px;fill:#a40000;fill-opacity:1;stroke:none;font-family:Museo Sans;-inkscape-font-specification:Museo Sans"
       x="291.93408"
       y="345.2554"
       id="text4495"
       sodipodi:linespacing="125%"><tspan
         sodipodi:role="line"
         id="tspan4497"
         x="291.93408"
         y="345.2554">...</tspan></text>
    <rect
       style="fill:none;stroke:#a40000;stroke-width:1.39999998;stroke-miterlimit:4;stroke-opacity:1;stroke-dasharray:none"
       id="rect3811"
       width="85.714287"
       height="77.14286"
       x="124.28571"
       y="308.07648" />
    <text
       xml:space="preserve"
       style="font-size:24px;font-style:normal;font-variant:normal;font-weight:normal;font-stretch:normal;line-height:125%;letter-spacing:0px;word-spacing:0px;fill:#a40000;fill-opacity:1;stroke:none;font-family:Museo Sans;-inkscape-font-specification:Museo Sans"
       x="101.42857"
       y="299.50504"
       id="text3813"
       sodipodi:linespacing="125%"><tspan
         sodipodi:role="line"
         id="tspan3815"
         x="101.42857"
         y="299.50504">cell</tspan></text>
    <path
       style="fill:none;stroke:#a40000;stroke-width:1px;stroke-linecap:butt;stroke-linejoin:miter;stroke-opacity:1"
       d="m 124.28571,346.64791 85.71429,0"
       id="path3817"
       inkscape:connector-curvature="0" />
    <text
       xml:space="preserve"
       style="font-size:18px;font-style:normal;font-variant:normal;font-weight:normal;font-stretch:normal;line-height:125%;letter-spacing:0px;word-spacing:0px;fill:#a40000;fill-opacity:1;stroke:none;font-family:Museo Sans;-inkscape-font-specification:Museo Sans"
       x="146.47212"
       y="372.52951"
       id="text4499"
       sodipodi:linespacing="125%"><tspan
         sodipodi:role="line"
         id="tspan4501"
         x="146.47212"
         y="372.52951">next</tspan></text>
    <rect
       y="308.07648"
       x="621.28076"
       height="77.14286"
       width="85.714287"
       id="rect4517"
       style="fill:none;stroke:#a40000;stroke-width:1.39999998;stroke-miterlimit:4;stroke-opacity:1;stroke-dasharray:none" />
    <text
       sodipodi:linespacing="125%"
       id="text4519"
       y="299.50504"
       x="598.42365"
       style="font-size:24px;font-style:normal;font-variant:normal;font-weight:normal;font-stretch:normal;line-height:125%;letter-spacing:0px;word-spacing:0px;fill:#a40000;fill-opacity:1;stroke:none;font-family:Museo Sans;-inkscape-font-specification:Museo Sans"
       xml:space="preserve"><tspan
         y="299.50504"
         x="598.42365"
         id="tspan4521"
         sodipodi:role="line">cell</tspan></text>
    <path
       inkscape:connector-curvature="0"
       id="path4523"
       d="m 621.28076,346.64791 85.71429,0"
       style="fill:none;stroke:#a40000;stroke-width:1px;stroke-linecap:butt;stroke-linejoin:miter;stroke-opacity:1" />
    <text
       sodipodi:linespacing="125%"
       id="text4525"
       y="372.52951"
       x="643.46716"
       style="font-size:18px;font-style:normal;font-variant:normal;font-weight:normal;font-stretch:normal;line-height:125%;letter-spacing:0px;word-spacing:0px;fill:#a40000;fill-opacity:1;stroke:none;font-family:Museo Sans;-inkscape-font-specification:Museo Sans"
       xml:space="preserve"><tspan
         y="372.52951"
         x="643.46716"
         id="tspan4527"
         sodipodi:role="line">next</tspan></text>
    <path
       sodipodi:type="arc"
       style="opacity:1;fill:none;stroke:#2e3436;stroke-width:1.14914791;stroke-miterlimit:4;stroke-opacity:1;stroke-dasharray:none;marker-end:url(#Arrow2Lend)"
       id="path3029"
       sodipodi:cx="731.42859"
       sodipodi:cy="348.51218"
       sodipodi:rx="40.378384"
       sodipodi:ry="40.378384"
       d="m 771.80697,348.51218 c 0,22.30036 -18.07802,40.37838 -40.37838,40.37838 -22.30037,0 -40.37838,-18.07802 -40.37838,-40.37838 0,-21.74444 17.21913,-39.58388 38.94995,-40.35311"
       transform="matrix(-0.87021,0,0,0.87021,1343.7486,82.571345)"
       sodipodi:start="0"
       sodipodi:end="4.6770056"
       sodipodi:open="true" />
    <rect
       style="fill:none;stroke:#a40000;stroke-width:1.39999998;stroke-miterlimit:4;stroke-opacity:1;stroke-dasharray:none"
       id="rect4531"
       width="85.714287"
       height="77.14286"
       x="459.65637"
       y="308.07648" />
    <text
       xml:space="preserve"
       style="font-size:24px;font-style:normal;font-variant:normal;font-weight:normal;font-stretch:normal;line-height:125%;letter-spacing:0px;word-spacing:0px;fill:#a40000;fill-opacity:1;stroke:none;font-family:Museo Sans;-inkscape-font-specification:Museo Sans"
       x="436.79922"
       y="299.50504"
       id="text4533"
       sodipodi:linespacing="125%"><tspan
         sodipodi:role="line"
         id="tspan4535"
         x="436.79922"
         y="299.50504">cell</tspan></text>
    <path
       style="fill:none;stroke:#a40000;stroke-width:1px;stroke-linecap:butt;stroke-linejoin:miter;stroke-opacity:1"
       d="m 459.65636,346.64791 85.71429,0"
       id="path4537"
       inkscape:connector-curvature="0" />
    <text
       xml:space="preserve"
       style="font-size:18px;font-style:normal;font-variant:normal;font-weight:normal;font-stretch:normal;line-height:125%;letter-spacing:0px;word-spacing:0px;fill:#a40000;fill-opacity:1;stroke:none;font-family:Museo Sans;-inkscape-font-specification:Museo Sans"
       x="481.84277"
       y="372.52951"
       id="text4539"
       sodipodi:linespacing="125%"><tspan
         sodipodi:role="line"
         id="tspan4541"
         x="481.84277"
         y="372.52951">next</tspan></text>
    <path
       style="fill:none;stroke:#000000;stroke-width:1px;stroke-linecap:butt;stroke-linejoin:miter;stroke-opacity:1;marker-end:url(#Arrow1Lend)"
       d="m 65.357143,119.95147 c -76.162441,3.3894 -72.5000001,82.41071 -73.9285716,122.41071 -1.4285714,40 22.3763736,76.23745 39.9999996,90 17.979695,14.04061 91.428569,0 91.428569,0"
       id="path4545"
       inkscape:connector-curvature="0"
       sodipodi:nodetypes="cssc" />
    <path
       style="fill:none;stroke:#000000;stroke-width:1px;stroke-linecap:butt;stroke-linejoin:miter;stroke-opacity:1;marker-end:url(#Arrow1Lend)"
       d="m 201.42857,193.79075 c 40.58663,0.59174 390.82816,-8.92614 424.74619,16.34807 38.80604,28.91655 50.60795,59.01719 49.53953,95.87773"
       id="path4731"
       inkscape:connector-curvature="0"
       sodipodi:nodetypes="csc" />
  </g>
</svg>
